<?xml version="1.0" encoding="UTF-8"?>
<svg width="54px" height="36px" viewBox="0 0 54 36" version="1.1" xmlns="http://www.w3.org/2000/svg" xmlns:xlink="http://www.w3.org/1999/xlink">
    <!-- Generator: Sketch 41.2 (35397) - http://www.bohemiancoding.com/sketch -->
    <title>Group 9</title>
    <desc>Created with Sketch.</desc>
    <defs></defs>
    <g id="Page-1" stroke="none" stroke-width="1" fill="none" fill-rule="evenodd">
        <g id="Group-9" transform="translate(27.000000, 18.000000) scale(1, -1) translate(-27.000000, -18.000000) " fill="#D8D8D8">
            <path d="M6.00533333,15.6999413 L6.00533333,3.00279577 C6.00533333,1.34439746 7.35517961,0 9.00901456,0 L45.0016521,0 C46.6605394,0 48.0053333,1.35091055 48.0053333,3.00279577 L48.0053333,15.6289454 C47.0279255,15.8758014 46.3017458,16.7619575 46.3017458,17.817306 L46.3017458,21.2995998 C45.907945,21.4893871 45.4668231,21.5957447 45.0016521,21.5957447 L9.00901456,21.5957447 C8.44993342,21.5957447 7.92652817,21.4423033 7.47825419,21.1756123 L7.47825419,17.817306 C7.47825419,16.8443203 6.86529533,16.0177854 6.00533333,15.6999413 Z" id="Combined-Shape"></path>
            <rect id="Rectangle-10" x="7.50666667" y="22.3404255" width="38.5999985" height="12.6595745" rx="2.25"></rect>
            <rect id="Rectangle-10" transform="translate(3.378000, 25.691489) rotate(-270.000000) translate(-3.378000, -25.691489) " x="-6.00533333" y="22.3404255" width="18.7666667" height="6.70212766" rx="2.16000009"></rect>
            <rect id="Rectangle-10" transform="translate(50.351064, 25.383333) rotate(-270.000000) translate(-50.351064, -25.383333) " x="40.9677305" y="22.0322695" width="18.7666667" height="6.70212766" rx="2.16000009"></rect>
        </g>
    </g>
</svg>