<?xml version="1.0" encoding="UTF-8"?>
<svg width="52px" height="33px" viewBox="0 0 52 33" version="1.1" xmlns="http://www.w3.org/2000/svg" xmlns:xlink="http://www.w3.org/1999/xlink">
    <!-- Generator: Sketch 41.2 (35397) - http://www.bohemiancoding.com/sketch -->
    <title>Group 20</title>
    <desc>Created with Sketch.</desc>
    <defs></defs>
    <g id="SF-Cinema-Jaew" stroke="none" stroke-width="1" fill="none" fill-rule="evenodd">
        <g id="Group-20" fill="#2E83B3">
            <path d="M26,18 L26,2.99075223 C26,1.34410858 24.6567996,0 22.9998779,0 L10.0001221,0 C8.3360431,0 7,1.33900538 7,2.99075223 L7,22.0092478 C7,23.6558914 8.3432004,25 10.0001221,25 L18.0704313,25 C18.1160729,25.0029146 18.162089,25.0043945 18.2084353,25.0043945 L32.6695514,25.0043945 C32.7158513,25.0043945 32.7618121,25.0029149 32.8073888,25 L41.9998779,25 C43.6639569,25 45,23.6609946 45,22.0092478 L45,2.99075223 C45,1.34410858 43.6567996,0 41.9998779,0 L29.0001221,0 C27.3360431,0 26,1.33900538 26,2.99075223 L26,18 L26,18 Z" id="Combined-Shape"></path>
            <path d="M5.77802235,26.2360727 L45.9692989,26.2360727 L46.2074969,6.25026038 C46.2217353,5.05560007 47.200566,4.08713655 48.3890077,4.08713655 L49.7796754,4.08713655 C50.9702522,4.08713655 51.9239931,5.04467484 51.9096245,6.25026038 L51.6181846,30.7032972 C51.611847,31.2350446 51.4144073,31.7219786 51.0924415,32.0986441 C50.9053262,32.5475127 50.3417016,32.9382004 48.9464336,32.9382004 L4.03155557,32.9382004 C3.90701379,32.9606451 3.7787451,32.9723624 3.64774504,32.9723624 L2.25707733,32.9723624 C1.06650054,32.9723624 0.0977050847,32.0084 0.0932087263,30.8183961 L1.56606819e-05,6.15396631 C-0.0044791818,4.96436357 0.959165259,4 2.147607,4 L3.53827471,4 C4.7288515,4 5.69764696,4.96396234 5.70214332,6.15396631 L5.77802235,26.2360727 Z" id="Combined-Shape"></path>
        </g>
    </g>
</svg>